name,costo,type,dateenable,quality
Meza,23000,1,2016-08-16,6
Silla,23000,2,2016-08-16,6
MeaAS,23000,3,2016-08-16,6
Azul,s23000,4,2016-08-16,6
Meza,23000,1,2016-08-16,6
Silla,23000,2,2016-08-16,6
MeaAS,23000,3,2016-08-16,6
Azul,s23000,4,2016-08-16,6
Meza,23000,1,2016-08-16,6
Silla,23000,2,2016-08-16,6
MeaAS,23000,3,2016-08-16,6
Azul,s23000,4,2016-08-16,6
Meza,23000,1,2016-08-16,6
Silla,23000,2,2016-08-16,6
MeaAS,23000,3,2016-08-16,6
Azul,s23000,4,2016-08-16,6
Meza,23000,1,2016-08-16,6
Silla,23000,2,2016-08-16,6
MeaAS,23000,3,2016-08-16,6
Azul,s23000,4,2016-08-16,6
Meza,23000,1,2016-08-16,6
Silla,23000,2,2016-08-16,6
MeaAS,23000,3,2016-08-16,6
Azul,s23000,4,2016-08-16,6
Meza,23000,1,2016-08-16,6
Silla,23000,2,2016-08-16,6
MeaAS,23000,3,2016-08-16,6
Azul,s23000,4,2016-08-16,6
Meza,23000,1,2016-08-16,6
Silla,23000,2,2016-08-16,6
MeaAS,23000,3,2016-08-16,6
Azul,s23000,4,2016-08-16,6
Meza,23000,1,2016-08-16,6
Silla,23000,2,2016-08-16,6
MeaAS,23000,3,2016-08-16,6
Azul,s23000,4,2016-08-16,6
Meza,23000,1,2016-08-16,6
Silla,23000,2,2016-08-16,6
MeaAS,23000,3,2016-08-16,6
Azul,s23000,4,2016-08-16,6
Meza,23000,1,2016-08-16,6
Silla,23000,2,2016-08-16,6
MeaAS,23000,3,2016-08-16,6
Azul,s23000,4,2016-08-16,6
Meza,23000,1,2016-08-16,6
Silla,23000,2,2016-08-16,6
MeaAS,23000,3,2016-08-16,6
Azul,s23000,4,2016-08-16,6
Meza,23000,1,2016-08-16,6
Silla,23000,2,2016-08-16,6
MeaAS,23000,3,2016-08-16,6
Azul,s23000,4,2016-08-16,6
Meza,23000,1,2016-08-16,6
Silla,23000,2,2016-08-16,6
MeaAS,23000,3,2016-08-16,6
Azul,s23000,4,2016-08-16,6
Meza,23000,1,2016-08-16,6
Silla,23000,2,2016-08-16,6
MeaAS,23000,3,2016-08-16,6
Azul,s23000,4,2016-08-16,6
Meza,23000,1,2016-08-16,6
Silla,23000,2,2016-08-16,6
MeaAS,23000,3,2016-08-16,6
Azul,s23000,4,2016-08-16,6
Meza,23000,1,2016-08-16,6
Silla,23000,2,2016-08-16,6
MeaAS,23000,3,2016-08-16,6
Azul,s23000,4,2016-08-16,6
Meza,23000,1,2016-08-16,6
Silla,23000,2,2016-08-16,6
MeaAS,23000,3,2016-08-16,6
Azul,s23000,4,2016-08-16,6
Meza,23000,1,2016-08-16,6
Silla,23000,2,2016-08-16,6
MeaAS,23000,3,2016-08-16,6
Azul,s23000,4,2016-08-16,6
Meza,23000,1,2016-08-16,6
Silla,23000,2,2016-08-16,6
MeaAS,23000,3,2016-08-16,6
Azul,s23000,4,2016-08-16,6
Meza,23000,1,2016-08-16,6
Silla,23000,2,2016-08-16,6
MeaAS,23000,3,2016-08-16,6
Azul,s23000,4,2016-08-16,6
Meza,23000,1,2016-08-16,6
Silla,23000,2,2016-08-16,6
MeaAS,23000,3,2016-08-16,6
Azul,s23000,4,2016-08-16,6
Meza,23000,1,2016-08-16,6
Silla,23000,2,2016-08-16,6
MeaAS,23000,3,2016-08-16,6
Azul,s23000,4,2016-08-16,6
Meza,23000,1,2016-08-16,6
Silla,23000,2,2016-08-16,6
MeaAS,23000,3,2016-08-16,6
Azul,s23000,4,2016-08-16,6
Meza,23000,1,2016-08-16,6
Silla,23000,2,2016-08-16,6
MeaAS,23000,3,2016-08-16,6
Azul,s23000,4,2016-08-16,6
Meza,23000,1,2016-08-16,6
Silla,23000,2,2016-08-16,6
MeaAS,23000,3,2016-08-16,6
Azul,s23000,4,2016-08-16,6
Meza,23000,1,2016-08-16,6
Silla,23000,2,2016-08-16,6
MeaAS,23000,3,2016-08-16,6
Azul,s23000,4,2016-08-16,6
Meza,23000,1,2016-08-16,6
Silla,23000,2,2016-08-16,6
MeaAS,23000,3,2016-08-16,6
Azul,s23000,4,2016-08-16,6
Meza,23000,1,2016-08-16,6
Silla,23000,2,2016-08-16,6
MeaAS,23000,3,2016-08-16,6
Azul,s23000,4,2016-08-16,6
Meza,23000,1,2016-08-16,6
Silla,23000,2,2016-08-16,6
MeaAS,23000,3,2016-08-16,6
Azul,s23000,4,2016-08-16,6
Meza,23000,1,2016-08-16,6
Silla,23000,2,2016-08-16,6
MeaAS,23000,3,2016-08-16,6
Azul,s23000,4,2016-08-16,6
Meza,23000,1,2016-08-16,6
Silla,23000,2,2016-08-16,6
MeaAS,23000,3,2016-08-16,6
Azul,s23000,4,2016-08-16,6
Meza,23000,1,2016-08-16,6
Silla,23000,2,2016-08-16,6
MeaAS,23000,3,2016-08-16,6
Azul,s23000,4,2016-08-16,6
Meza,23000,1,2016-08-16,6
Silla,23000,2,2016-08-16,6
MeaAS,23000,3,2016-08-16,6
Azul,s23000,4,2016-08-16,6
Meza,23000,1,2016-08-16,6
Silla,23000,2,2016-08-16,6
MeaAS,23000,3,2016-08-16,6
Azul,s23000,4,2016-08-16,6
Meza,23000,1,2016-08-16,6
Silla,23000,2,2016-08-16,6
MeaAS,23000,3,2016-08-16,6
Azul,s23000,4,2016-08-16,6
Meza,23000,1,2016-08-16,6
Silla,23000,2,2016-08-16,6
MeaAS,23000,3,2016-08-16,6
Azul,s23000,4,2016-08-16,6
Meza,23000,1,2016-08-16,6
Silla,23000,2,2016-08-16,6
MeaAS,23000,3,2016-08-16,6
Azul,s23000,4,2016-08-16,6
Meza,23000,1,2016-08-16,6
Silla,23000,2,2016-08-16,6
MeaAS,23000,3,2016-08-16,6
Azul,s23000,4,2016-08-16,6
Meza,23000,1,2016-08-16,6
Silla,23000,2,2016-08-16,6
MeaAS,23000,3,2016-08-16,6
Azul,s23000,4,2016-08-16,6
Meza,23000,1,2016-08-16,6
Silla,23000,2,2016-08-16,6
MeaAS,23000,3,2016-08-16,6
Azul,s23000,4,2016-08-16,6
Meza,23000,1,2016-08-16,6
Silla,23000,2,2016-08-16,6
MeaAS,23000,3,2016-08-16,6
Azul,s23000,4,2016-08-16,6
Meza,23000,1,2016-08-16,6
Silla,23000,2,2016-08-16,6
MeaAS,23000,3,2016-08-16,6
Azul,s23000,4,2016-08-16,6
Meza,23000,1,2016-08-16,6
Silla,23000,2,2016-08-16,6
MeaAS,23000,3,2016-08-16,6
Azul,s23000,4,2016-08-16,6
Meza,23000,1,2016-08-16,6
Silla,23000,2,2016-08-16,6
MeaAS,23000,3,2016-08-16,6
Azul,s23000,4,2016-08-16,6
Meza,23000,1,2016-08-16,6
Silla,23000,2,2016-08-16,6
MeaAS,23000,3,2016-08-16,6
Azul,s23000,4,2016-08-16,6
Meza,23000,1,2016-08-16,6
Silla,23000,2,2016-08-16,6
MeaAS,23000,3,2016-08-16,6
Azul,s23000,4,2016-08-16,6
Meza,23000,1,2016-08-16,6
Silla,23000,2,2016-08-16,6
MeaAS,23000,3,2016-08-16,6
Azul,s23000,4,2016-08-16,6
Meza,23000,1,2016-08-16,6
Silla,23000,2,2016-08-16,6
MeaAS,23000,3,2016-08-16,6
Azul,s23000,4,2016-08-16,6
Meza,23000,1,2016-08-16,6
Silla,23000,2,2016-08-16,6
MeaAS,23000,3,2016-08-16,6
Azul,s23000,4,2016-08-16,6
Meza,23000,1,2016-08-16,6
Silla,23000,2,2016-08-16,6
MeaAS,23000,3,2016-08-16,6
Azul,s23000,4,2016-08-16,6
Meza,23000,1,2016-08-16,6
Silla,23000,2,2016-08-16,6
MeaAS,23000,3,2016-08-16,6
Azul,s23000,4,2016-08-16,6
Meza,23000,1,2016-08-16,6
Silla,23000,2,2016-08-16,6
MeaAS,23000,3,2016-08-16,6
Azul,s23000,4,2016-08-16,6
Meza,23000,1,2016-08-16,6
Silla,23000,2,2016-08-16,6
MeaAS,23000,3,2016-08-16,6
Azul,s23000,4,2016-08-16,6
Meza,23000,1,2016-08-16,6
Silla,23000,2,2016-08-16,6
MeaAS,23000,3,2016-08-16,6
Azul,s23000,4,2016-08-16,6
Meza,23000,1,2016-08-16,6
Silla,23000,2,2016-08-16,6
MeaAS,23000,3,2016-08-16,6
Azul,s23000,4,2016-08-16,6
Meza,23000,1,2016-08-16,6
Silla,23000,2,2016-08-16,6
MeaAS,23000,3,2016-08-16,6
Azul,s23000,4,2016-08-16,6
Meza,23000,1,2016-08-16,6
Silla,23000,2,2016-08-16,6
MeaAS,23000,3,2016-08-16,6
Azul,s23000,4,2016-08-16,6
Meza,23000,1,2016-08-16,6
Silla,23000,2,2016-08-16,6
MeaAS,23000,3,2016-08-16,6
Azul,s23000,4,2016-08-16,6
Meza,23000,1,2016-08-16,6
Silla,23000,2,2016-08-16,6
MeaAS,23000,3,2016-08-16,6
Azul,s23000,4,2016-08-16,6
Meza,23000,1,2016-08-16,6
Silla,23000,2,2016-08-16,6
MeaAS,23000,3,2016-08-16,6
Azul,s23000,4,2016-08-16,6
Meza,23000,1,2016-08-16,6
Silla,23000,2,2016-08-16,6
MeaAS,23000,3,2016-08-16,6
Azul,s23000,4,2016-08-16,6
Meza,23000,1,2016-08-16,6
Silla,23000,2,2016-08-16,6
MeaAS,23000,3,2016-08-16,6
Azul,s23000,4,2016-08-16,6
Meza,23000,1,2016-08-16,6
Silla,23000,2,2016-08-16,6
MeaAS,23000,3,2016-08-16,6
Azul,s23000,4,2016-08-16,6
Meza,23000,1,2016-08-16,6
Silla,23000,2,2016-08-16,6
MeaAS,23000,3,2016-08-16,6
Azul,s23000,4,2016-08-16,6
Meza,23000,1,2016-08-16,6
Silla,23000,2,2016-08-16,6
MeaAS,23000,3,2016-08-16,6
Azul,s23000,4,2016-08-16,6
Meza,23000,1,2016-08-16,6
Silla,23000,2,2016-08-16,6
MeaAS,23000,3,2016-08-16,6
Azul,s23000,4,2016-08-16,6
Meza,23000,1,2016-08-16,6
Silla,23000,2,2016-08-16,6
MeaAS,23000,3,2016-08-16,6
Azul,s23000,4,2016-08-16,6
Meza,23000,1,2016-08-16,6
Silla,23000,2,2016-08-16,6
MeaAS,23000,3,2016-08-16,6
Azul,s23000,4,2016-08-16,6
Meza,23000,1,2016-08-16,6
Silla,23000,2,2016-08-16,6
MeaAS,23000,3,2016-08-16,6
Azul,s23000,4,2016-08-16,6
Meza,23000,1,2016-08-16,6
Silla,23000,2,2016-08-16,6
MeaAS,23000,3,2016-08-16,6
Azul,s23000,4,2016-08-16,6
Meza,23000,1,2016-08-16,6
Silla,23000,2,2016-08-16,6
MeaAS,23000,3,2016-08-16,6
Azul,s23000,4,2016-08-16,6
Meza,23000,1,2016-08-16,6
Silla,23000,2,2016-08-16,6
MeaAS,23000,3,2016-08-16,6
Azul,s23000,4,2016-08-16,6
Meza,23000,1,2016-08-16,6
Silla,23000,2,2016-08-16,6
MeaAS,23000,3,2016-08-16,6
Azul,s23000,4,2016-08-16,6
Meza,23000,1,2016-08-16,6
Silla,23000,2,2016-08-16,6
MeaAS,23000,3,2016-08-16,6
Azul,s23000,4,2016-08-16,6
Meza,23000,1,2016-08-16,6
Silla,23000,2,2016-08-16,6
MeaAS,23000,3,2016-08-16,6
Azul,s23000,4,2016-08-16,6
Meza,23000,1,2016-08-16,6
Silla,23000,2,2016-08-16,6
MeaAS,23000,3,2016-08-16,6
Azul,s23000,4,2016-08-16,6
Meza,23000,1,2016-08-16,6
Silla,23000,2,2016-08-16,6
MeaAS,23000,3,2016-08-16,6
Azul,s23000,4,2016-08-16,6
Meza,23000,1,2016-08-16,6
Silla,23000,2,2016-08-16,6
MeaAS,23000,3,2016-08-16,6
Azul,s23000,4,2016-08-16,6
Meza,23000,1,2016-08-16,6
Silla,23000,2,2016-08-16,6
MeaAS,23000,3,2016-08-16,6
Azul,s23000,4,2016-08-16,6
Meza,23000,1,2016-08-16,6
Silla,23000,2,2016-08-16,6
MeaAS,23000,3,2016-08-16,6
Azul,s23000,4,2016-08-16,6
Meza,23000,1,2016-08-16,6
Silla,23000,2,2016-08-16,6
MeaAS,23000,3,2016-08-16,6
Azul,s23000,4,2016-08-16,6
Meza,23000,1,2016-08-16,6
Silla,23000,2,2016-08-16,6
MeaAS,23000,3,2016-08-16,6
Azul,s23000,4,2016-08-16,6
Meza,23000,1,2016-08-16,6
Silla,23000,2,2016-08-16,6
MeaAS,23000,3,2016-08-16,6
Azul,s23000,4,2016-08-16,6
Meza,23000,1,2016-08-16,6
Silla,23000,2,2016-08-16,6
MeaAS,23000,3,2016-08-16,6
Azul,s23000,4,2016-08-16,6
Meza,23000,1,2016-08-16,6
Silla,23000,2,2016-08-16,6
MeaAS,23000,3,2016-08-16,6
Azul,s23000,4,2016-08-16,6
Meza,23000,1,2016-08-16,6
Silla,23000,2,2016-08-16,6
MeaAS,23000,3,2016-08-16,6
Azul,s23000,4,2016-08-16,6
Meza,23000,1,2016-08-16,6
Silla,23000,2,2016-08-16,6
MeaAS,23000,3,2016-08-16,6
Azul,s23000,4,2016-08-16,6
Meza,23000,1,2016-08-16,6
Silla,23000,2,2016-08-16,6
MeaAS,23000,3,2016-08-16,6
Azul,s23000,4,2016-08-16,6
Meza,23000,1,2016-08-16,6
Silla,23000,2,2016-08-16,6
MeaAS,23000,3,2016-08-16,6
Azul,s23000,4,2016-08-16,6
Meza,23000,1,2016-08-16,6
Silla,23000,2,2016-08-16,6
MeaAS,23000,3,2016-08-16,6
Azul,s23000,4,2016-08-16,6
Meza,23000,1,2016-08-16,6
Silla,23000,2,2016-08-16,6
MeaAS,23000,3,2016-08-16,6
Azul,s23000,4,2016-08-16,6
Meza,23000,1,2016-08-16,6
Silla,23000,2,2016-08-16,6
MeaAS,23000,3,2016-08-16,6
Azul,s23000,4,2016-08-16,6
Meza,23000,1,2016-08-16,6
Silla,23000,2,2016-08-16,6
MeaAS,23000,3,2016-08-16,6
Azul,s23000,4,2016-08-16,6
Meza,23000,1,2016-08-16,6
Silla,23000,2,2016-08-16,6
MeaAS,23000,3,2016-08-16,6
Azul,s23000,4,2016-08-16,6
Meza,23000,1,2016-08-16,6
Silla,23000,2,2016-08-16,6
MeaAS,23000,3,2016-08-16,6
Azul,s23000,4,2016-08-16,6
Meza,23000,1,2016-08-16,6
Silla,23000,2,2016-08-16,6
MeaAS,23000,3,2016-08-16,6
Azul,s23000,4,2016-08-16,6
Meza,23000,1,2016-08-16,6
Silla,23000,2,2016-08-16,6
MeaAS,23000,3,2016-08-16,6
Azul,s23000,4,2016-08-16,6
Meza,23000,1,2016-08-16,6
Silla,23000,2,2016-08-16,6
MeaAS,23000,3,2016-08-16,6
Azul,s23000,4,2016-08-16,6
Meza,23000,1,2016-08-16,6
Silla,23000,2,2016-08-16,6
MeaAS,23000,3,2016-08-16,6
Azul,s23000,4,2016-08-16,6
Meza,23000,1,2016-08-16,6
Silla,23000,2,2016-08-16,6
MeaAS,23000,3,2016-08-16,6
Azul,s23000,4,2016-08-16,6
Meza,23000,1,2016-08-16,6
Silla,23000,2,2016-08-16,6
MeaAS,23000,3,2016-08-16,6
Azul,s23000,4,2016-08-16,6
Meza,23000,1,2016-08-16,6
Silla,23000,2,2016-08-16,6
MeaAS,23000,3,2016-08-16,6
Azul,s23000,4,2016-08-16,6
Meza,23000,1,2016-08-16,6
Silla,23000,2,2016-08-16,6
MeaAS,23000,3,2016-08-16,6
Azul,s23000,4,2016-08-16,6
Meza,23000,1,2016-08-16,6
Silla,23000,2,2016-08-16,6
MeaAS,23000,3,2016-08-16,6
Azul,s23000,4,2016-08-16,6
Meza,23000,1,2016-08-16,6
Silla,23000,2,2016-08-16,6
MeaAS,23000,3,2016-08-16,6
Azul,s23000,4,2016-08-16,6
Meza,23000,1,2016-08-16,6
Silla,23000,2,2016-08-16,6
MeaAS,23000,3,2016-08-16,6
Azul,s23000,4,2016-08-16,6
Meza,23000,1,2016-08-16,6
Silla,23000,2,2016-08-16,6
MeaAS,23000,3,2016-08-16,6
Azul,s23000,4,2016-08-16,6
Meza,23000,1,2016-08-16,6
Silla,23000,2,2016-08-16,6
MeaAS,23000,3,2016-08-16,6
Azul,s23000,4,2016-08-16,6
Meza,23000,1,2016-08-16,6
Silla,23000,2,2016-08-16,6
MeaAS,23000,3,2016-08-16,6
Azul,s23000,4,2016-08-16,6
Meza,23000,1,2016-08-16,6
Silla,23000,2,2016-08-16,6
MeaAS,23000,3,2016-08-16,6
Azul,s23000,4,2016-08-16,6
Meza,23000,1,2016-08-16,6
Silla,23000,2,2016-08-16,6
MeaAS,23000,3,2016-08-16,6
Azul,s23000,4,2016-08-16,6
Meza,23000,1,2016-08-16,6
Silla,23000,2,2016-08-16,6
MeaAS,23000,3,2016-08-16,6
Azul,s23000,4,2016-08-16,6
Meza,23000,1,2016-08-16,6
Silla,23000,2,2016-08-16,6
MeaAS,23000,3,2016-08-16,6
Azul,s23000,4,2016-08-16,6
Meza,23000,1,2016-08-16,6
Silla,23000,2,2016-08-16,6
MeaAS,23000,3,2016-08-16,6
Azul,s23000,4,2016-08-16,6
Meza,23000,1,2016-08-16,6
Silla,23000,2,2016-08-16,6
MeaAS,23000,3,2016-08-16,6
Azul,s23000,4,2016-08-16,6
Meza,23000,1,2016-08-16,6
Silla,23000,2,2016-08-16,6
MeaAS,23000,3,2016-08-16,6
Azul,s23000,4,2016-08-16,6
Meza,23000,1,2016-08-16,6
Silla,23000,2,2016-08-16,6
MeaAS,23000,3,2016-08-16,6
Azul,s23000,4,2016-08-16,6
Meza,23000,1,2016-08-16,6
Silla,23000,2,2016-08-16,6
MeaAS,23000,3,2016-08-16,6
Azul,s23000,4,2016-08-16,6
Meza,23000,1,2016-08-16,6
Silla,23000,2,2016-08-16,6
MeaAS,23000,3,2016-08-16,6
Azul,s23000,4,2016-08-16,6
Meza,23000,1,2016-08-16,6
Silla,23000,2,2016-08-16,6
MeaAS,23000,3,2016-08-16,6
Azul,s23000,4,2016-08-16,6
Meza,23000,1,2016-08-16,6
Silla,23000,2,2016-08-16,6
MeaAS,23000,3,2016-08-16,6
Azul,s23000,4,2016-08-16,6
Meza,23000,1,2016-08-16,6
Silla,23000,2,2016-08-16,6
MeaAS,23000,3,2016-08-16,6
Azul,s23000,4,2016-08-16,6
Meza,23000,1,2016-08-16,6
Silla,23000,2,2016-08-16,6
MeaAS,23000,3,2016-08-16,6
Azul,s23000,4,2016-08-16,6
Meza,23000,1,2016-08-16,6
Silla,23000,2,2016-08-16,6
MeaAS,23000,3,2016-08-16,6
Azul,s23000,4,2016-08-16,6
Meza,23000,1,2016-08-16,6
Silla,23000,2,2016-08-16,6
MeaAS,23000,3,2016-08-16,6
Azul,s23000,4,2016-08-16,6
Meza,23000,1,2016-08-16,6
Silla,23000,2,2016-08-16,6
MeaAS,23000,3,2016-08-16,6
Azul,s23000,4,2016-08-16,6
Meza,23000,1,2016-08-16,6
Silla,23000,2,2016-08-16,6
MeaAS,23000,3,2016-08-16,6
Azul,s23000,4,2016-08-16,6
Meza,23000,1,2016-08-16,6
Silla,23000,2,2016-08-16,6
MeaAS,23000,3,2016-08-16,6
Azul,s23000,4,2016-08-16,6
Meza,23000,1,2016-08-16,6
Silla,23000,2,2016-08-16,6
MeaAS,23000,3,2016-08-16,6
Azul,s23000,4,2016-08-16,6
Meza,23000,1,2016-08-16,6
Silla,23000,2,2016-08-16,6
MeaAS,23000,3,2016-08-16,6
Azul,s23000,4,2016-08-16,6
Meza,23000,1,2016-08-16,6
Silla,23000,2,2016-08-16,6
MeaAS,23000,3,2016-08-16,6
Azul,s23000,4,2016-08-16,6
Meza,23000,1,2016-08-16,6
Silla,23000,2,2016-08-16,6
MeaAS,23000,3,2016-08-16,6
Azul,s23000,4,2016-08-16,6
Meza,23000,1,2016-08-16,6
Silla,23000,2,2016-08-16,6
MeaAS,23000,3,2016-08-16,6
Azul,s23000,4,2016-08-16,6
Meza,23000,1,2016-08-16,6
Silla,23000,2,2016-08-16,6
MeaAS,23000,3,2016-08-16,6
Azul,s23000,4,2016-08-16,6
Meza,23000,1,2016-08-16,6
Silla,23000,2,2016-08-16,6
MeaAS,23000,3,2016-08-16,6
Azul,s23000,4,2016-08-16,6
Meza,23000,1,2016-08-16,6
Silla,23000,2,2016-08-16,6
MeaAS,23000,3,2016-08-16,6
Azul,s23000,4,2016-08-16,6
Meza,23000,1,2016-08-16,6
Silla,23000,2,2016-08-16,6
MeaAS,23000,3,2016-08-16,6
Azul,s23000,4,2016-08-16,6
Meza,23000,1,2016-08-16,6
Silla,23000,2,2016-08-16,6
MeaAS,23000,3,2016-08-16,6
Azul,s23000,4,2016-08-16,6
Meza,23000,1,2016-08-16,6
Silla,23000,2,2016-08-16,6
MeaAS,23000,3,2016-08-16,6
Azul,s23000,4,2016-08-16,6
Meza,23000,1,2016-08-16,6
Silla,23000,2,2016-08-16,6
MeaAS,23000,3,2016-08-16,6
Azul,s23000,4,2016-08-16,6
Meza,23000,1,2016-08-16,6
Silla,23000,2,2016-08-16,6
MeaAS,23000,3,2016-08-16,6
Azul,s23000,4,2016-08-16,6
Meza,23000,1,2016-08-16,6
Silla,23000,2,2016-08-16,6
MeaAS,23000,3,2016-08-16,6
Azul,s23000,4,2016-08-16,6
Meza,23000,1,2016-08-16,6
Silla,23000,2,2016-08-16,6
MeaAS,23000,3,2016-08-16,6
Azul,s23000,4,2016-08-16,6
Meza,23000,1,2016-08-16,6
Silla,23000,2,2016-08-16,6
MeaAS,23000,3,2016-08-16,6
Azul,s23000,4,2016-08-16,6
Meza,23000,1,2016-08-16,6
Silla,23000,2,2016-08-16,6
MeaAS,23000,3,2016-08-16,6
Azul,s23000,4,2016-08-16,6
Meza,23000,1,2016-08-16,6
Silla,23000,2,2016-08-16,6
MeaAS,23000,3,2016-08-16,6
Azul,s23000,4,2016-08-16,6
Meza,23000,1,2016-08-16,6
Silla,23000,2,2016-08-16,6
MeaAS,23000,3,2016-08-16,6
Azul,s23000,4,2016-08-16,6
Meza,23000,1,2016-08-16,6
Silla,23000,2,2016-08-16,6
MeaAS,23000,3,2016-08-16,6
Azul,s23000,4,2016-08-16,6
Meza,23000,1,2016-08-16,6
Silla,23000,2,2016-08-16,6
MeaAS,23000,3,2016-08-16,6
Azul,s23000,4,2016-08-16,6
Meza,23000,1,2016-08-16,6
Silla,23000,2,2016-08-16,6
MeaAS,23000,3,2016-08-16,6
Azul,s23000,4,2016-08-16,6
Meza,23000,1,2016-08-16,6
Silla,23000,2,2016-08-16,6
MeaAS,23000,3,2016-08-16,6
Azul,s23000,4,2016-08-16,6
Meza,23000,1,2016-08-16,6
Silla,23000,2,2016-08-16,6
MeaAS,23000,3,2016-08-16,6
Azul,s23000,4,2016-08-16,6
Meza,23000,1,2016-08-16,6
Silla,23000,2,2016-08-16,6
MeaAS,23000,3,2016-08-16,6
Azul,s23000,4,2016-08-16,6
Meza,23000,1,2016-08-16,6
Silla,23000,2,2016-08-16,6
MeaAS,23000,3,2016-08-16,6
Azul,s23000,4,2016-08-16,6
Meza,23000,1,2016-08-16,6
Silla,23000,2,2016-08-16,6
MeaAS,23000,3,2016-08-16,6
Azul,s23000,4,2016-08-16,6
Meza,23000,1,2016-08-16,6
Silla,23000,2,2016-08-16,6
MeaAS,23000,3,2016-08-16,6
Azul,s23000,4,2016-08-16,6
Meza,23000,1,2016-08-16,6
Silla,23000,2,2016-08-16,6
MeaAS,23000,3,2016-08-16,6
Azul,s23000,4,2016-08-16,6
Meza,23000,1,2016-08-16,6
Silla,23000,2,2016-08-16,6
MeaAS,23000,3,2016-08-16,6
Azul,s23000,4,2016-08-16,6
Meza,23000,1,2016-08-16,6
Silla,23000,2,2016-08-16,6
MeaAS,23000,3,2016-08-16,6
Azul,s23000,4,2016-08-16,6
Meza,23000,1,2016-08-16,6
Silla,23000,2,2016-08-16,6
MeaAS,23000,3,2016-08-16,6
Azul,s23000,4,2016-08-16,6
Meza,23000,1,2016-08-16,6
Silla,23000,2,2016-08-16,6
MeaAS,23000,3,2016-08-16,6
Azul,s23000,4,2016-08-16,6
Meza,23000,1,2016-08-16,6
Silla,23000,2,2016-08-16,6
MeaAS,23000,3,2016-08-16,6
Azul,s23000,4,2016-08-16,6
Meza,23000,1,2016-08-16,6
Silla,23000,2,2016-08-16,6
MeaAS,23000,3,2016-08-16,6
Azul,s23000,4,2016-08-16,6
Meza,23000,1,2016-08-16,6
Silla,23000,2,2016-08-16,6
MeaAS,23000,3,2016-08-16,6
Azul,s23000,4,2016-08-16,6
Meza,23000,1,2016-08-16,6
Silla,23000,2,2016-08-16,6
MeaAS,23000,3,2016-08-16,6
Azul,s23000,4,2016-08-16,6
Meza,23000,1,2016-08-16,6
Silla,23000,2,2016-08-16,6
MeaAS,23000,3,2016-08-16,6
Azul,s23000,4,2016-08-16,6
Meza,23000,1,2016-08-16,6
Silla,23000,2,2016-08-16,6
MeaAS,23000,3,2016-08-16,6
Azul,s23000,4,2016-08-16,6
Meza,23000,1,2016-08-16,6
Silla,23000,2,2016-08-16,6
MeaAS,23000,3,2016-08-16,6
Azul,s23000,4,2016-08-16,6
Meza,23000,1,2016-08-16,6
Silla,23000,2,2016-08-16,6
MeaAS,23000,3,2016-08-16,6
Azul,s23000,4,2016-08-16,6
Meza,23000,1,2016-08-16,6
Silla,23000,2,2016-08-16,6
MeaAS,23000,3,2016-08-16,6
Azul,s23000,4,2016-08-16,6
Meza,23000,1,2016-08-16,6
Silla,23000,2,2016-08-16,6
MeaAS,23000,3,2016-08-16,6
Azul,s23000,4,2016-08-16,6
Meza,23000,1,2016-08-16,6
Silla,23000,2,2016-08-16,6
MeaAS,23000,3,2016-08-16,6
Azul,s23000,4,2016-08-16,6
Meza,23000,1,2016-08-16,6
Silla,23000,2,2016-08-16,6
MeaAS,23000,3,2016-08-16,6
Azul,s23000,4,2016-08-16,6
Meza,23000,1,2016-08-16,6
Silla,23000,2,2016-08-16,6
MeaAS,23000,3,2016-08-16,6
Azul,s23000,4,2016-08-16,6
Meza,23000,1,2016-08-16,6
Silla,23000,2,2016-08-16,6
MeaAS,23000,3,2016-08-16,6
Azul,s23000,4,2016-08-16,6
Meza,23000,1,2016-08-16,6
Silla,23000,2,2016-08-16,6
MeaAS,23000,3,2016-08-16,6
Azul,s23000,4,2016-08-16,6
Meza,23000,1,2016-08-16,6
Silla,23000,2,2016-08-16,6
MeaAS,23000,3,2016-08-16,6
Azul,s23000,4,2016-08-16,6
Meza,23000,1,2016-08-16,6
Silla,23000,2,2016-08-16,6
MeaAS,23000,3,2016-08-16,6
Azul,s23000,4,2016-08-16,6
Meza,23000,1,2016-08-16,6
Silla,23000,2,2016-08-16,6
MeaAS,23000,3,2016-08-16,6
Azul,s23000,4,2016-08-16,6
Meza,23000,1,2016-08-16,6
Silla,23000,2,2016-08-16,6
MeaAS,23000,3,2016-08-16,6
Azul,s23000,4,2016-08-16,6
Meza,23000,1,2016-08-16,6
Silla,23000,2,2016-08-16,6
MeaAS,23000,3,2016-08-16,6
Azul,s23000,4,2016-08-16,6
Meza,23000,1,2016-08-16,6
Silla,23000,2,2016-08-16,6
MeaAS,23000,3,2016-08-16,6
Azul,s23000,4,2016-08-16,6
Meza,23000,1,2016-08-16,6
Silla,23000,2,2016-08-16,6
MeaAS,23000,3,2016-08-16,6
Azul,s23000,4,2016-08-16,6
name,costo,type,dateenable,quality
Meza,23000,1,2016-08-16,6
Silla,23000,2,2016-08-16,6
MeaAS,23000,3,2016-08-16,6
Azul,s23000,4,2016-08-16,6
Meza,23000,1,2016-08-16,6
Silla,23000,2,2016-08-16,6
MeaAS,23000,3,2016-08-16,6
Azul,s23000,4,2016-08-16,6
Meza,23000,1,2016-08-16,6
Silla,23000,2,2016-08-16,6
MeaAS,23000,3,2016-08-16,6
Azul,s23000,4,2016-08-16,6
Meza,23000,1,2016-08-16,6
Silla,23000,2,2016-08-16,6
MeaAS,23000,3,2016-08-16,6
Azul,s23000,4,2016-08-16,6
Meza,23000,1,2016-08-16,6
Silla,23000,2,2016-08-16,6
MeaAS,23000,3,2016-08-16,6
Azul,s23000,4,2016-08-16,6
Meza,23000,1,2016-08-16,6
Silla,23000,2,2016-08-16,6
MeaAS,23000,3,2016-08-16,6
Azul,s23000,4,2016-08-16,6
Meza,23000,1,2016-08-16,6
Silla,23000,2,2016-08-16,6
MeaAS,23000,3,2016-08-16,6
Azul,s23000,4,2016-08-16,6
Meza,23000,1,2016-08-16,6
Silla,23000,2,2016-08-16,6
MeaAS,23000,3,2016-08-16,6
Azul,s23000,4,2016-08-16,6
Meza,23000,1,2016-08-16,6
Silla,23000,2,2016-08-16,6
MeaAS,23000,3,2016-08-16,6
Azul,s23000,4,2016-08-16,6
Meza,23000,1,2016-08-16,6
Silla,23000,2,2016-08-16,6
MeaAS,23000,3,2016-08-16,6
Azul,s23000,4,2016-08-16,6
Meza,23000,1,2016-08-16,6
Silla,23000,2,2016-08-16,6
MeaAS,23000,3,2016-08-16,6
Azul,s23000,4,2016-08-16,6
Meza,23000,1,2016-08-16,6
Silla,23000,2,2016-08-16,6
MeaAS,23000,3,2016-08-16,6
Azul,s23000,4,2016-08-16,6
Meza,23000,1,2016-08-16,6
Silla,23000,2,2016-08-16,6
MeaAS,23000,3,2016-08-16,6
Azul,s23000,4,2016-08-16,6
Meza,23000,1,2016-08-16,6
Silla,23000,2,2016-08-16,6
MeaAS,23000,3,2016-08-16,6
Azul,s23000,4,2016-08-16,6
Meza,23000,1,2016-08-16,6
Silla,23000,2,2016-08-16,6
MeaAS,23000,3,2016-08-16,6
Azul,s23000,4,2016-08-16,6
Meza,23000,1,2016-08-16,6
Silla,23000,2,2016-08-16,6
MeaAS,23000,3,2016-08-16,6
Azul,s23000,4,2016-08-16,6
Meza,23000,1,2016-08-16,6
Silla,23000,2,2016-08-16,6
MeaAS,23000,3,2016-08-16,6
Azul,s23000,4,2016-08-16,6
Meza,23000,1,2016-08-16,6
Silla,23000,2,2016-08-16,6
MeaAS,23000,3,2016-08-16,6
Azul,s23000,4,2016-08-16,6
Meza,23000,1,2016-08-16,6
Silla,23000,2,2016-08-16,6
MeaAS,23000,3,2016-08-16,6
Azul,s23000,4,2016-08-16,6
Meza,23000,1,2016-08-16,6
Silla,23000,2,2016-08-16,6
MeaAS,23000,3,2016-08-16,6
Azul,s23000,4,2016-08-16,6
Meza,23000,1,2016-08-16,6
Silla,23000,2,2016-08-16,6
MeaAS,23000,3,2016-08-16,6
Azul,s23000,4,2016-08-16,6
Meza,23000,1,2016-08-16,6
Silla,23000,2,2016-08-16,6
MeaAS,23000,3,2016-08-16,6
Azul,s23000,4,2016-08-16,6
Meza,23000,1,2016-08-16,6
Silla,23000,2,2016-08-16,6
MeaAS,23000,3,2016-08-16,6
Azul,s23000,4,2016-08-16,6
Meza,23000,1,2016-08-16,6
Silla,23000,2,2016-08-16,6
MeaAS,23000,3,2016-08-16,6
Azul,s23000,4,2016-08-16,6
Meza,23000,1,2016-08-16,6
Silla,23000,2,2016-08-16,6
MeaAS,23000,3,2016-08-16,6
Azul,s23000,4,2016-08-16,6
Meza,23000,1,2016-08-16,6
Silla,23000,2,2016-08-16,6
MeaAS,23000,3,2016-08-16,6
Azul,s23000,4,2016-08-16,6
Meza,23000,1,2016-08-16,6
Silla,23000,2,2016-08-16,6
MeaAS,23000,3,2016-08-16,6
Azul,s23000,4,2016-08-16,6
Meza,23000,1,2016-08-16,6
Silla,23000,2,2016-08-16,6
MeaAS,23000,3,2016-08-16,6
Azul,s23000,4,2016-08-16,6
Meza,23000,1,2016-08-16,6
Silla,23000,2,2016-08-16,6
MeaAS,23000,3,2016-08-16,6
Azul,s23000,4,2016-08-16,6
Meza,23000,1,2016-08-16,6
Silla,23000,2,2016-08-16,6
MeaAS,23000,3,2016-08-16,6
Azul,s23000,4,2016-08-16,6
Meza,23000,1,2016-08-16,6
Silla,23000,2,2016-08-16,6
MeaAS,23000,3,2016-08-16,6
Azul,s23000,4,2016-08-16,6
Meza,23000,1,2016-08-16,6
Silla,23000,2,2016-08-16,6
MeaAS,23000,3,2016-08-16,6
Azul,s23000,4,2016-08-16,6
Meza,23000,1,2016-08-16,6
Silla,23000,2,2016-08-16,6
MeaAS,23000,3,2016-08-16,6
Azul,s23000,4,2016-08-16,6
Meza,23000,1,2016-08-16,6
Silla,23000,2,2016-08-16,6
MeaAS,23000,3,2016-08-16,6
Azul,s23000,4,2016-08-16,6
Meza,23000,1,2016-08-16,6
Silla,23000,2,2016-08-16,6
MeaAS,23000,3,2016-08-16,6
Azul,s23000,4,2016-08-16,6
Meza,23000,1,2016-08-16,6
Silla,23000,2,2016-08-16,6
MeaAS,23000,3,2016-08-16,6
Azul,s23000,4,2016-08-16,6
Meza,23000,1,2016-08-16,6
Silla,23000,2,2016-08-16,6
MeaAS,23000,3,2016-08-16,6
Azul,s23000,4,2016-08-16,6
Meza,23000,1,2016-08-16,6
Silla,23000,2,2016-08-16,6
MeaAS,23000,3,2016-08-16,6
Azul,s23000,4,2016-08-16,6
Meza,23000,1,2016-08-16,6
Silla,23000,2,2016-08-16,6
MeaAS,23000,3,2016-08-16,6
Azul,s23000,4,2016-08-16,6
Meza,23000,1,2016-08-16,6
Silla,23000,2,2016-08-16,6
MeaAS,23000,3,2016-08-16,6
Azul,s23000,4,2016-08-16,6
Meza,23000,1,2016-08-16,6
Silla,23000,2,2016-08-16,6
MeaAS,23000,3,2016-08-16,6
Azul,s23000,4,2016-08-16,6
Meza,23000,1,2016-08-16,6
Silla,23000,2,2016-08-16,6
MeaAS,23000,3,2016-08-16,6
Azul,s23000,4,2016-08-16,6
Meza,23000,1,2016-08-16,6
Silla,23000,2,2016-08-16,6
MeaAS,23000,3,2016-08-16,6
Azul,s23000,4,2016-08-16,6
Meza,23000,1,2016-08-16,6
Silla,23000,2,2016-08-16,6
MeaAS,23000,3,2016-08-16,6
Azul,s23000,4,2016-08-16,6
Meza,23000,1,2016-08-16,6
Silla,23000,2,2016-08-16,6
MeaAS,23000,3,2016-08-16,6
Azul,s23000,4,2016-08-16,6
Meza,23000,1,2016-08-16,6
Silla,23000,2,2016-08-16,6
MeaAS,23000,3,2016-08-16,6
Azul,s23000,4,2016-08-16,6
Meza,23000,1,2016-08-16,6
Silla,23000,2,2016-08-16,6
MeaAS,23000,3,2016-08-16,6
Azul,s23000,4,2016-08-16,6
Meza,23000,1,2016-08-16,6
Silla,23000,2,2016-08-16,6
MeaAS,23000,3,2016-08-16,6
Azul,s23000,4,2016-08-16,6
Meza,23000,1,2016-08-16,6
Silla,23000,2,2016-08-16,6
MeaAS,23000,3,2016-08-16,6
Azul,s23000,4,2016-08-16,6
Meza,23000,1,2016-08-16,6
Silla,23000,2,2016-08-16,6
MeaAS,23000,3,2016-08-16,6
Azul,s23000,4,2016-08-16,6
Meza,23000,1,2016-08-16,6
Silla,23000,2,2016-08-16,6
MeaAS,23000,3,2016-08-16,6
Azul,s23000,4,2016-08-16,6
Meza,23000,1,2016-08-16,6
Silla,23000,2,2016-08-16,6
MeaAS,23000,3,2016-08-16,6
Azul,s23000,4,2016-08-16,6
Meza,23000,1,2016-08-16,6
Silla,23000,2,2016-08-16,6
MeaAS,23000,3,2016-08-16,6
Azul,s23000,4,2016-08-16,6
Meza,23000,1,2016-08-16,6
Silla,23000,2,2016-08-16,6
MeaAS,23000,3,2016-08-16,6
Azul,s23000,4,2016-08-16,6
Meza,23000,1,2016-08-16,6
Silla,23000,2,2016-08-16,6
MeaAS,23000,3,2016-08-16,6
Azul,s23000,4,2016-08-16,6
Meza,23000,1,2016-08-16,6
Silla,23000,2,2016-08-16,6
MeaAS,23000,3,2016-08-16,6
Azul,s23000,4,2016-08-16,6
Meza,23000,1,2016-08-16,6
Silla,23000,2,2016-08-16,6
MeaAS,23000,3,2016-08-16,6
Azul,s23000,4,2016-08-16,6
Meza,23000,1,2016-08-16,6
Silla,23000,2,2016-08-16,6
MeaAS,23000,3,2016-08-16,6
Azul,s23000,4,2016-08-16,6
Meza,23000,1,2016-08-16,6
Silla,23000,2,2016-08-16,6
MeaAS,23000,3,2016-08-16,6
Azul,s23000,4,2016-08-16,6
Meza,23000,1,2016-08-16,6
Silla,23000,2,2016-08-16,6
MeaAS,23000,3,2016-08-16,6
Azul,s23000,4,2016-08-16,6
Meza,23000,1,2016-08-16,6
Silla,23000,2,2016-08-16,6
MeaAS,23000,3,2016-08-16,6
Azul,s23000,4,2016-08-16,6
Meza,23000,1,2016-08-16,6
Silla,23000,2,2016-08-16,6
MeaAS,23000,3,2016-08-16,6
Azul,s23000,4,2016-08-16,6
Meza,23000,1,2016-08-16,6
Silla,23000,2,2016-08-16,6
MeaAS,23000,3,2016-08-16,6
Azul,s23000,4,2016-08-16,6
Meza,23000,1,2016-08-16,6
Silla,23000,2,2016-08-16,6
MeaAS,23000,3,2016-08-16,6
Azul,s23000,4,2016-08-16,6
Meza,23000,1,2016-08-16,6
Silla,23000,2,2016-08-16,6
MeaAS,23000,3,2016-08-16,6
Azul,s23000,4,2016-08-16,6
Meza,23000,1,2016-08-16,6
Silla,23000,2,2016-08-16,6
MeaAS,23000,3,2016-08-16,6
Azul,s23000,4,2016-08-16,6
Meza,23000,1,2016-08-16,6
Silla,23000,2,2016-08-16,6
MeaAS,23000,3,2016-08-16,6
Azul,s23000,4,2016-08-16,6
Meza,23000,1,2016-08-16,6
Silla,23000,2,2016-08-16,6
MeaAS,23000,3,2016-08-16,6
Azul,s23000,4,2016-08-16,6
Meza,23000,1,2016-08-16,6
Silla,23000,2,2016-08-16,6
MeaAS,23000,3,2016-08-16,6
Azul,s23000,4,2016-08-16,6
Meza,23000,1,2016-08-16,6
Silla,23000,2,2016-08-16,6
MeaAS,23000,3,2016-08-16,6
Azul,s23000,4,2016-08-16,6
Meza,23000,1,2016-08-16,6
Silla,23000,2,2016-08-16,6
MeaAS,23000,3,2016-08-16,6
Azul,s23000,4,2016-08-16,6
Meza,23000,1,2016-08-16,6
Silla,23000,2,2016-08-16,6
MeaAS,23000,3,2016-08-16,6
Azul,s23000,4,2016-08-16,6
Meza,23000,1,2016-08-16,6
Silla,23000,2,2016-08-16,6
MeaAS,23000,3,2016-08-16,6
Azul,s23000,4,2016-08-16,6
Meza,23000,1,2016-08-16,6
Silla,23000,2,2016-08-16,6
MeaAS,23000,3,2016-08-16,6
Azul,s23000,4,2016-08-16,6
Meza,23000,1,2016-08-16,6
Silla,23000,2,2016-08-16,6
MeaAS,23000,3,2016-08-16,6
Azul,s23000,4,2016-08-16,6
Meza,23000,1,2016-08-16,6
Silla,23000,2,2016-08-16,6
MeaAS,23000,3,2016-08-16,6
Azul,s23000,4,2016-08-16,6
Meza,23000,1,2016-08-16,6
Silla,23000,2,2016-08-16,6
MeaAS,23000,3,2016-08-16,6
Azul,s23000,4,2016-08-16,6
Meza,23000,1,2016-08-16,6
Silla,23000,2,2016-08-16,6
MeaAS,23000,3,2016-08-16,6
Azul,s23000,4,2016-08-16,6
Meza,23000,1,2016-08-16,6
Silla,23000,2,2016-08-16,6
MeaAS,23000,3,2016-08-16,6
Azul,s23000,4,2016-08-16,6
Meza,23000,1,2016-08-16,6
Silla,23000,2,2016-08-16,6
MeaAS,23000,3,2016-08-16,6
Azul,s23000,4,2016-08-16,6
Meza,23000,1,2016-08-16,6
Silla,23000,2,2016-08-16,6
MeaAS,23000,3,2016-08-16,6
Azul,s23000,4,2016-08-16,6
Meza,23000,1,2016-08-16,6
Silla,23000,2,2016-08-16,6
MeaAS,23000,3,2016-08-16,6
Azul,s23000,4,2016-08-16,6
Meza,23000,1,2016-08-16,6
Silla,23000,2,2016-08-16,6
MeaAS,23000,3,2016-08-16,6
Azul,s23000,4,2016-08-16,6
Meza,23000,1,2016-08-16,6
Silla,23000,2,2016-08-16,6
MeaAS,23000,3,2016-08-16,6
Azul,s23000,4,2016-08-16,6
Meza,23000,1,2016-08-16,6
Silla,23000,2,2016-08-16,6
MeaAS,23000,3,2016-08-16,6
Azul,s23000,4,2016-08-16,6
Meza,23000,1,2016-08-16,6
Silla,23000,2,2016-08-16,6
MeaAS,23000,3,2016-08-16,6
Azul,s23000,4,2016-08-16,6
Meza,23000,1,2016-08-16,6
Silla,23000,2,2016-08-16,6
MeaAS,23000,3,2016-08-16,6
Azul,s23000,4,2016-08-16,6
Meza,23000,1,2016-08-16,6
Silla,23000,2,2016-08-16,6
MeaAS,23000,3,2016-08-16,6
Azul,s23000,4,2016-08-16,6
Meza,23000,1,2016-08-16,6
Silla,23000,2,2016-08-16,6
MeaAS,23000,3,2016-08-16,6
Azul,s23000,4,2016-08-16,6
Meza,23000,1,2016-08-16,6
Silla,23000,2,2016-08-16,6
MeaAS,23000,3,2016-08-16,6
Azul,s23000,4,2016-08-16,6
Meza,23000,1,2016-08-16,6
Silla,23000,2,2016-08-16,6
MeaAS,23000,3,2016-08-16,6
Azul,s23000,4,2016-08-16,6
Meza,23000,1,2016-08-16,6
Silla,23000,2,2016-08-16,6
MeaAS,23000,3,2016-08-16,6
Azul,s23000,4,2016-08-16,6
Meza,23000,1,2016-08-16,6
Silla,23000,2,2016-08-16,6
MeaAS,23000,3,2016-08-16,6
Azul,s23000,4,2016-08-16,6
Meza,23000,1,2016-08-16,6
Silla,23000,2,2016-08-16,6
MeaAS,23000,3,2016-08-16,6
Azul,s23000,4,2016-08-16,6
Meza,23000,1,2016-08-16,6
Silla,23000,2,2016-08-16,6
MeaAS,23000,3,2016-08-16,6
Azul,s23000,4,2016-08-16,6
Meza,23000,1,2016-08-16,6
Silla,23000,2,2016-08-16,6
MeaAS,23000,3,2016-08-16,6
Azul,s23000,4,2016-08-16,6
Meza,23000,1,2016-08-16,6
Silla,23000,2,2016-08-16,6
MeaAS,23000,3,2016-08-16,6
Azul,s23000,4,2016-08-16,6
Meza,23000,1,2016-08-16,6
Silla,23000,2,2016-08-16,6
MeaAS,23000,3,2016-08-16,6
Azul,s23000,4,2016-08-16,6
Meza,23000,1,2016-08-16,6
Silla,23000,2,2016-08-16,6
MeaAS,23000,3,2016-08-16,6
Azul,s23000,4,2016-08-16,6
Meza,23000,1,2016-08-16,6
Silla,23000,2,2016-08-16,6
MeaAS,23000,3,2016-08-16,6
Azul,s23000,4,2016-08-16,6
Meza,23000,1,2016-08-16,6
Silla,23000,2,2016-08-16,6
MeaAS,23000,3,2016-08-16,6
Azul,s23000,4,2016-08-16,6
Meza,23000,1,2016-08-16,6
Silla,23000,2,2016-08-16,6
MeaAS,23000,3,2016-08-16,6
Azul,s23000,4,2016-08-16,6
Meza,23000,1,2016-08-16,6
Silla,23000,2,2016-08-16,6
MeaAS,23000,3,2016-08-16,6
Azul,s23000,4,2016-08-16,6
Meza,23000,1,2016-08-16,6
Silla,23000,2,2016-08-16,6
MeaAS,23000,3,2016-08-16,6
Azul,s23000,4,2016-08-16,6
Meza,23000,1,2016-08-16,6
Silla,23000,2,2016-08-16,6
MeaAS,23000,3,2016-08-16,6
Azul,s23000,4,2016-08-16,6
Meza,23000,1,2016-08-16,6
Silla,23000,2,2016-08-16,6
MeaAS,23000,3,2016-08-16,6
Azul,s23000,4,2016-08-16,6
Meza,23000,1,2016-08-16,6
Silla,23000,2,2016-08-16,6
MeaAS,23000,3,2016-08-16,6
Azul,s23000,4,2016-08-16,6
Meza,23000,1,2016-08-16,6
Silla,23000,2,2016-08-16,6
MeaAS,23000,3,2016-08-16,6
Azul,s23000,4,2016-08-16,6
Meza,23000,1,2016-08-16,6
Silla,23000,2,2016-08-16,6
MeaAS,23000,3,2016-08-16,6
Azul,s23000,4,2016-08-16,6
Meza,23000,1,2016-08-16,6
Silla,23000,2,2016-08-16,6
MeaAS,23000,3,2016-08-16,6
Azul,s23000,4,2016-08-16,6
Meza,23000,1,2016-08-16,6
Silla,23000,2,2016-08-16,6
MeaAS,23000,3,2016-08-16,6
Azul,s23000,4,2016-08-16,6
Meza,23000,1,2016-08-16,6
Silla,23000,2,2016-08-16,6
MeaAS,23000,3,2016-08-16,6
Azul,s23000,4,2016-08-16,6
Meza,23000,1,2016-08-16,6
Silla,23000,2,2016-08-16,6
MeaAS,23000,3,2016-08-16,6
Azul,s23000,4,2016-08-16,6
Meza,23000,1,2016-08-16,6
Silla,23000,2,2016-08-16,6
MeaAS,23000,3,2016-08-16,6
Azul,s23000,4,2016-08-16,6
Meza,23000,1,2016-08-16,6
Silla,23000,2,2016-08-16,6
MeaAS,23000,3,2016-08-16,6
Azul,s23000,4,2016-08-16,6
Meza,23000,1,2016-08-16,6
Silla,23000,2,2016-08-16,6
MeaAS,23000,3,2016-08-16,6
Azul,s23000,4,2016-08-16,6
Meza,23000,1,2016-08-16,6
Silla,23000,2,2016-08-16,6
MeaAS,23000,3,2016-08-16,6
Azul,s23000,4,2016-08-16,6
Meza,23000,1,2016-08-16,6
Silla,23000,2,2016-08-16,6
MeaAS,23000,3,2016-08-16,6
Azul,s23000,4,2016-08-16,6
Meza,23000,1,2016-08-16,6
Silla,23000,2,2016-08-16,6
MeaAS,23000,3,2016-08-16,6
Azul,s23000,4,2016-08-16,6
Meza,23000,1,2016-08-16,6
Silla,23000,2,2016-08-16,6
MeaAS,23000,3,2016-08-16,6
Azul,s23000,4,2016-08-16,6
Meza,23000,1,2016-08-16,6
Silla,23000,2,2016-08-16,6
MeaAS,23000,3,2016-08-16,6
Azul,s23000,4,2016-08-16,6
Meza,23000,1,2016-08-16,6
Silla,23000,2,2016-08-16,6
MeaAS,23000,3,2016-08-16,6
Azul,s23000,4,2016-08-16,6
Meza,23000,1,2016-08-16,6
Silla,23000,2,2016-08-16,6
MeaAS,23000,3,2016-08-16,6
Azul,s23000,4,2016-08-16,6
Meza,23000,1,2016-08-16,6
Silla,23000,2,2016-08-16,6
MeaAS,23000,3,2016-08-16,6
Azul,s23000,4,2016-08-16,6
Meza,23000,1,2016-08-16,6
Silla,23000,2,2016-08-16,6
MeaAS,23000,3,2016-08-16,6
Azul,s23000,4,2016-08-16,6
Meza,23000,1,2016-08-16,6
Silla,23000,2,2016-08-16,6
MeaAS,23000,3,2016-08-16,6
Azul,s23000,4,2016-08-16,6
Meza,23000,1,2016-08-16,6
Silla,23000,2,2016-08-16,6
MeaAS,23000,3,2016-08-16,6
Azul,s23000,4,2016-08-16,6
Meza,23000,1,2016-08-16,6
Silla,23000,2,2016-08-16,6
MeaAS,23000,3,2016-08-16,6
Azul,s23000,4,2016-08-16,6
Meza,23000,1,2016-08-16,6
Silla,23000,2,2016-08-16,6
MeaAS,23000,3,2016-08-16,6
Azul,s23000,4,2016-08-16,6
Meza,23000,1,2016-08-16,6
Silla,23000,2,2016-08-16,6
MeaAS,23000,3,2016-08-16,6
Azul,s23000,4,2016-08-16,6
Meza,23000,1,2016-08-16,6
Silla,23000,2,2016-08-16,6
MeaAS,23000,3,2016-08-16,6
Azul,s23000,4,2016-08-16,6
Meza,23000,1,2016-08-16,6
Silla,23000,2,2016-08-16,6
MeaAS,23000,3,2016-08-16,6
Azul,s23000,4,2016-08-16,6
Meza,23000,1,2016-08-16,6
Silla,23000,2,2016-08-16,6
MeaAS,23000,3,2016-08-16,6
Azul,s23000,4,2016-08-16,6
Meza,23000,1,2016-08-16,6
Silla,23000,2,2016-08-16,6
MeaAS,23000,3,2016-08-16,6
Azul,s23000,4,2016-08-16,6
Meza,23000,1,2016-08-16,6
Silla,23000,2,2016-08-16,6
MeaAS,23000,3,2016-08-16,6
Azul,s23000,4,2016-08-16,6
Meza,23000,1,2016-08-16,6
Silla,23000,2,2016-08-16,6
MeaAS,23000,3,2016-08-16,6
Azul,s23000,4,2016-08-16,6
Meza,23000,1,2016-08-16,6
Silla,23000,2,2016-08-16,6
MeaAS,23000,3,2016-08-16,6
Azul,s23000,4,2016-08-16,6
Meza,23000,1,2016-08-16,6
Silla,23000,2,2016-08-16,6
MeaAS,23000,3,2016-08-16,6
Azul,s23000,4,2016-08-16,6
Meza,23000,1,2016-08-16,6
Silla,23000,2,2016-08-16,6
MeaAS,23000,3,2016-08-16,6
Azul,s23000,4,2016-08-16,6
Meza,23000,1,2016-08-16,6
Silla,23000,2,2016-08-16,6
MeaAS,23000,3,2016-08-16,6
Azul,s23000,4,2016-08-16,6
Meza,23000,1,2016-08-16,6
Silla,23000,2,2016-08-16,6
MeaAS,23000,3,2016-08-16,6
Azul,s23000,4,2016-08-16,6
Meza,23000,1,2016-08-16,6
Silla,23000,2,2016-08-16,6
MeaAS,23000,3,2016-08-16,6
Azul,s23000,4,2016-08-16,6
Meza,23000,1,2016-08-16,6
Silla,23000,2,2016-08-16,6
MeaAS,23000,3,2016-08-16,6
Azul,s23000,4,2016-08-16,6
Meza,23000,1,2016-08-16,6
Silla,23000,2,2016-08-16,6
MeaAS,23000,3,2016-08-16,6
Azul,s23000,4,2016-08-16,6
Meza,23000,1,2016-08-16,6
Silla,23000,2,2016-08-16,6
MeaAS,23000,3,2016-08-16,6
Azul,s23000,4,2016-08-16,6
Meza,23000,1,2016-08-16,6
Silla,23000,2,2016-08-16,6
MeaAS,23000,3,2016-08-16,6
Azul,s23000,4,2016-08-16,6
Meza,23000,1,2016-08-16,6
Silla,23000,2,2016-08-16,6
MeaAS,23000,3,2016-08-16,6
Azul,s23000,4,2016-08-16,6
Meza,23000,1,2016-08-16,6
Silla,23000,2,2016-08-16,6
MeaAS,23000,3,2016-08-16,6
Azul,s23000,4,2016-08-16,6
Meza,23000,1,2016-08-16,6
Silla,23000,2,2016-08-16,6
MeaAS,23000,3,2016-08-16,6
Azul,s23000,4,2016-08-16,6
Meza,23000,1,2016-08-16,6
Silla,23000,2,2016-08-16,6
MeaAS,23000,3,2016-08-16,6
Azul,s23000,4,2016-08-16,6
Meza,23000,1,2016-08-16,6
Silla,23000,2,2016-08-16,6
MeaAS,23000,3,2016-08-16,6
Azul,s23000,4,2016-08-16,6
Meza,23000,1,2016-08-16,6
Silla,23000,2,2016-08-16,6
MeaAS,23000,3,2016-08-16,6
Azul,s23000,4,2016-08-16,6
Meza,23000,1,2016-08-16,6
Silla,23000,2,2016-08-16,6
MeaAS,23000,3,2016-08-16,6
Azul,s23000,4,2016-08-16,6
Meza,23000,1,2016-08-16,6
Silla,23000,2,2016-08-16,6
MeaAS,23000,3,2016-08-16,6
Azul,s23000,4,2016-08-16,6
Meza,23000,1,2016-08-16,6
Silla,23000,2,2016-08-16,6
MeaAS,23000,3,2016-08-16,6
Azul,s23000,4,2016-08-16,6
Meza,23000,1,2016-08-16,6
Silla,23000,2,2016-08-16,6
MeaAS,23000,3,2016-08-16,6
Azul,s23000,4,2016-08-16,6
Meza,23000,1,2016-08-16,6
Silla,23000,2,2016-08-16,6
MeaAS,23000,3,2016-08-16,6
Azul,s23000,4,2016-08-16,6
Meza,23000,1,2016-08-16,6
Silla,23000,2,2016-08-16,6
MeaAS,23000,3,2016-08-16,6
Azul,s23000,4,2016-08-16,6
Meza,23000,1,2016-08-16,6
Silla,23000,2,2016-08-16,6
MeaAS,23000,3,2016-08-16,6
Azul,s23000,4,2016-08-16,6
Meza,23000,1,2016-08-16,6
Silla,23000,2,2016-08-16,6
MeaAS,23000,3,2016-08-16,6
Azul,s23000,4,2016-08-16,6
Meza,23000,1,2016-08-16,6
Silla,23000,2,2016-08-16,6
MeaAS,23000,3,2016-08-16,6
Azul,s23000,4,2016-08-16,6
Meza,23000,1,2016-08-16,6
Silla,23000,2,2016-08-16,6
MeaAS,23000,3,2016-08-16,6
Azul,s23000,4,2016-08-16,6
Meza,23000,1,2016-08-16,6
Silla,23000,2,2016-08-16,6
MeaAS,23000,3,2016-08-16,6
Azul,s23000,4,2016-08-16,6
Meza,23000,1,2016-08-16,6
Silla,23000,2,2016-08-16,6
MeaAS,23000,3,2016-08-16,6
Azul,s23000,4,2016-08-16,6
Meza,23000,1,2016-08-16,6
Silla,23000,2,2016-08-16,6
MeaAS,23000,3,2016-08-16,6
Azul,s23000,4,2016-08-16,6
Meza,23000,1,2016-08-16,6
Silla,23000,2,2016-08-16,6
MeaAS,23000,3,2016-08-16,6
Azul,s23000,4,2016-08-16,6
Meza,23000,1,2016-08-16,6
Silla,23000,2,2016-08-16,6
MeaAS,23000,3,2016-08-16,6
Azul,s23000,4,2016-08-16,6
Meza,23000,1,2016-08-16,6
Silla,23000,2,2016-08-16,6
MeaAS,23000,3,2016-08-16,6
Azul,s23000,4,2016-08-16,6
Meza,23000,1,2016-08-16,6
Silla,23000,2,2016-08-16,6
MeaAS,23000,3,2016-08-16,6
Azul,s23000,4,2016-08-16,6
Meza,23000,1,2016-08-16,6
Silla,23000,2,2016-08-16,6
MeaAS,23000,3,2016-08-16,6
Azul,s23000,4,2016-08-16,6
Meza,23000,1,2016-08-16,6
Silla,23000,2,2016-08-16,6
MeaAS,23000,3,2016-08-16,6
Azul,s23000,4,2016-08-16,6
Meza,23000,1,2016-08-16,6
Silla,23000,2,2016-08-16,6
MeaAS,23000,3,2016-08-16,6
Azul,s23000,4,2016-08-16,6
Meza,23000,1,2016-08-16,6
Silla,23000,2,2016-08-16,6
MeaAS,23000,3,2016-08-16,6
Azul,s23000,4,2016-08-16,6
Meza,23000,1,2016-08-16,6
Silla,23000,2,2016-08-16,6
MeaAS,23000,3,2016-08-16,6
Azul,s23000,4,2016-08-16,6
Meza,23000,1,2016-08-16,6
Silla,23000,2,2016-08-16,6
MeaAS,23000,3,2016-08-16,6
Azul,s23000,4,2016-08-16,6
Meza,23000,1,2016-08-16,6
Silla,23000,2,2016-08-16,6
MeaAS,23000,3,2016-08-16,6
Azul,s23000,4,2016-08-16,6
Meza,23000,1,2016-08-16,6
Silla,23000,2,2016-08-16,6
MeaAS,23000,3,2016-08-16,6
Azul,s23000,4,2016-08-16,6
Meza,23000,1,2016-08-16,6
Silla,23000,2,2016-08-16,6
MeaAS,23000,3,2016-08-16,6
Azul,s23000,4,2016-08-16,6
Meza,23000,1,2016-08-16,6
Silla,23000,2,2016-08-16,6
MeaAS,23000,3,2016-08-16,6
Azul,s23000,4,2016-08-16,6
Meza,23000,1,2016-08-16,6
Silla,23000,2,2016-08-16,6
MeaAS,23000,3,2016-08-16,6
Azul,s23000,4,2016-08-16,6
Meza,23000,1,2016-08-16,6
Silla,23000,2,2016-08-16,6
MeaAS,23000,3,2016-08-16,6
Azul,s23000,4,2016-08-16,6
Meza,23000,1,2016-08-16,6
Silla,23000,2,2016-08-16,6
MeaAS,23000,3,2016-08-16,6
Azul,s23000,4,2016-08-16,6
Meza,23000,1,2016-08-16,6
Silla,23000,2,2016-08-16,6
MeaAS,23000,3,2016-08-16,6
Azul,s23000,4,2016-08-16,6
Meza,23000,1,2016-08-16,6
Silla,23000,2,2016-08-16,6
MeaAS,23000,3,2016-08-16,6
Azul,s23000,4,2016-08-16,6